{
  "users": [
    {
      "id": 1,
      "username": "anargh",
      "password": "aspire@123",
      "email": "anargh@gmail.com"
    },
    {
      "id": 2,
      "username": "thara",
      "password": "aspire@123",
      "email": "thara@gmail.com"
    },
    {
      "id": 3,
      "username": "deepa",
      "password": "aspire@123",
      "email": "deepa@gmail.com"
    },
    {
      "username": "Ameer",
      "password": "123456",
      "confirmPassword": "123456",
      "email": "ameer@gmail.com",
      "id": 4
    },
    {
      "username": "Ajay Gopi",
      "password": "123456",
      "confirmPassword": "123456",
      "email": "ajay@gmail.com",
      "id": 5
    }
  ],
  "products": [
    {
      "id": "001",
      "name": "Indigo Shirt for men",
      "description": "At vero eos et accusamus et iusto odio dignissimos",
      "price": "1000",
      "category": "Men",
      "subcategory": "Shirt",
      "supplier": "Ello Retail",
      "quantity": "2500",
      "image": "https://mmistakes.github.io/skinny-bones-jekyll/images/400x250.gif"
    },
    {
      "id": "002",
      "name": "Lenovo Laptop 15",
      "description": "At vero eos et accusamus et iusto odio dignissimos",
      "price": "50000",
      "category": "Electronics",
      "subcategory": "Laptop",
      "supplier": "Ello Retail",
      "quantity": "50",
      "image": "https://mmistakes.github.io/skinny-bones-jekyll/images/400x250.gif"
    },
    {
      "id": "003",
      "name": "Lenovo K8 Plus",
      "description": " If you use your phone mainly for watching videos or for gaming, and want an immersive experience, the Lenovo Vibe K5 Note phone is for you. Its TheatreMax technology gives you a 100 degree diagonal field view of videos so your experience is enhanced.",
      "price": "2600",
      "category": "Electronics",
      "subcategory": "Mobile",
      "supplier": "Ello Retail",
      "quantity": "50",
      "image": "https://rukminim1.flixcart.com/image/312/312/mobile/q/3/j/lenovo-k5-note-pa330117in-original-imaekyapfagcmsdg.jpeg?q=70"
    },
    {
      "id": "004",
      "name": "LG 60cm (24 inch) HD Ready LED TV  (24LJ470A)",
      "description": "At vero eos et accusamus et iusto odio dignissimos",
      "price": "500",
      "category": "Electronics",
      "subcategory": "TV",
      "supplier": "Ello Retail",
      "quantity": "50",
      "image": "https://rukminim1.flixcart.com/image/312/312/j4x207k0/television/2/p/t/lg-24lj470a-original-imaevq28saz6yq7h.jpeg?q=70"
    },
    {
      "id": "005",
      "name": "Name",
      "description": "At vero eos et accusamus et iusto odio dignissimos",
      "price": "700",
      "category": "1",
      "subcategory": "a",
      "supplier": "Ello Retail",
      "quantity": "50",
      "image": "https://mmistakes.github.io/skinny-bones-jekyll/images/400x250.gif"
    },
    {
      "id": "006",
      "name": "Name",
      "description": "At vero eos et accusamus et iusto odio dignissimos",
      "price": "79",
      "category": "3",
      "subcategory": "a",
      "supplier": "Ello Retail",
      "quantity": "50",
      "image": "https://mmistakes.github.io/skinny-bones-jekyll/images/400x250.gif"
    },
    {
      "id": "007",
      "name": "Name",
      "description": "At vero eos et accusamus et iusto odio dignissimos",
      "price": "4500",
      "category": "3",
      "subcategory": "a",
      "supplier": "Ello Retail",
      "quantity": "50",
      "image": "https://mmistakes.github.io/skinny-bones-jekyll/images/400x250.gif"
    },
    {
      "id": "008",
      "name": "Name",
      "description": "At vero eos et accusamus et iusto odio dignissimos",
      "price": "6000",
      "category": "1",
      "subcategory": "a",
      "supplier": "Ello Retail",
      "quantity": "50",
      "image": "https://mmistakes.github.io/skinny-bones-jekyll/images/400x250.gif"
    },
    {
      "id": "009",
      "name": "Name",
      "description": "At vero eos et accusamus et iusto odio dignissimos",
      "price": "2500",
      "category": "1",
      "subcategory": "a",
      "supplier": "Ello Retail",
      "quantity": "50",
      "image": "https://mmistakes.github.io/skinny-bones-jekyll/images/400x250.gif"
    },
    {
      "id": "010",
      "name": "Name",
      "description": "At vero eos et accusamus et iusto odio dignissimos",
      "price": "2500",
      "category": "1",
      "subcategory": "a",
      "supplier": "Ello Retail",
      "quantity": "50",
      "image": "https://mmistakes.github.io/skinny-bones-jekyll/images/400x250.gif"
    },
    {
      "id": "011",
      "name": "Name",
      "description": "At vero eos et accusamus et iusto odio dignissimos",
      "price": "2500",
      "category": "Laptop",
      "subcategory": "Gaming Laptop",
      "supplier": "Ello Retail",
      "quantity": "20",
      "image": "https://mmistakes.github.io/skinny-bones-jekyll/images/400x250.gif"
    }
  ],
  "orders": [
    {
      "orderID": "1517050277271USER1",
      "userID": 1,
      "purchaseDate": "1/27/2018",
      "orderItems": [
        {
          "product": {
            "id": "001",
            "name": "Indigo Shirt for men",
            "description": "At vero eos et accusamus et iusto odio dignissimos",
            "price": "1000"
          },
          "userID": 1,
          "quantity": 1
        },
        {
          "product": {
            "id": "002",
            "name": "Lenovo Laptop 15",
            "description": "At vero eos et accusamus et iusto odio dignissimos",
            "price": "50000"
          },
          "userID": 1,
          "quantity": 3
        },
        {
          "product": {
            "id": "004",
            "name": "LG 60cm (24 inch) HD Ready LED TV  (24LJ470A)",
            "description": "At vero eos et accusamus et iusto odio dignissimos",
            "price": "500"
          },
          "userID": 1,
          "quantity": 1
        }
      ],
      "totalAmount": 151500,
      "id": 1
    },
    {
      "orderID": "1517134815236USER1",
      "userID": 1,
      "purchaseDate": "1/28/2018",
      "orderItems": [
        {
          "product": {
            "id": "002",
            "name": "Lenovo Laptop 15",
            "description": "At vero eos et accusamus et iusto odio dignissimos",
            "price": "50000"
          },
          "userID": 1,
          "quantity": 1
        },
        {
          "product": {
            "id": "003",
            "name": "Lenovo K8 Plus",
            "description": " If you use your phone mainly for watching videos or for gaming, and want an immersive experience, the Lenovo Vibe K5 Note phone is for you. Its TheatreMax technology gives you a 100 degree diagonal field view of videos so your experience is enhanced.",
            "price": "2600"
          },
          "userID": 1,
          "quantity": 1
        }
      ],
      "totalAmount": 52600,
      "id": 2
    },
    {
      "orderID": "1524563871674USER1",
      "userID": 1,
      "purchaseDate": "24/04/2018",
      "orderItems": [
        {
          "product": {
            "id": "001",
            "name": "Indigo Shirt for men",
            "description": "At vero eos et accusamus et iusto odio dignissimos",
            "price": "1000"
          },
          "userID": 1,
          "quantity": 1
        }
      ],
      "totalAmount": 1000,
      "id": 3
    },
    {
      "orderID": "1524575721550USER1",
      "userID": 1,
      "purchaseDate": "24/04/2018",
      "orderItems": [
        {
          "product": {
            "id": "001",
            "name": "Indigo Shirt for men",
            "description": "At vero eos et accusamus et iusto odio dignissimos",
            "price": "1000"
          },
          "userID": 1,
          "quantity": 1
        }
      ],
      "totalAmount": 1000,
      "id": 4
    }
  ]
}